proback.github.io - Creating informative maps
…
Choropleth Maps

When you have specific regions (e.g. countries, states, counties, census tracts,…) and a value associated with each region.

A choropleth map will color the entire region according to the value. For example, let’s consider state vaccination data from March 2021.

vaccines <- read_csv("https://proback.github.io/264_fall_2024/Data/vacc_Mar21.csv") 

vacc_mar13 <- vaccines |>
  filter(Date =="2021-03-13") |>
  select(State, Date, people_vaccinated_per100, share_doses_used, Governor)

vacc_mar13

# A tibble: 50 × 5
   State       Date       people_vaccinated_per100 share_doses_used Governor
   <chr>       <date>                        <dbl>            <dbl> <chr>   
 1 Alabama     2021-03-13                     17.2            0.671 R       
 2 Alaska      2021-03-13                     27.0            0.686 R       
 3 Arizona     2021-03-13                     21.5            0.821 R       
 4 Arkansas    2021-03-13                     19.2            0.705 R       
 5 California  2021-03-13                     20.3            0.726 D       
 6 Colorado    2021-03-13                     20.8            0.801 D       
 7 Connecticut 2021-03-13                     26.2            0.851 D       
 8 Delaware    2021-03-13                     20.2            0.753 D       
 9 Florida     2021-03-13                     20.1            0.766 R       
10 Georgia     2021-03-13                     15.2            0.674 R       
# ℹ 40 more rows
…
2

From https://leafletjs.com/examples/choropleth/us-states.js

3

Note that states has class sf in addition to the usual tbl and df

[1] "sf"         "tbl_df"     "tbl"        "data.frame"
Simple feature collection with 52 features and 3 fields
Geometry type: MULTIPOLYGON
Dimension:     XY
Bounding box:  xmin: -188.9049 ymin: 17.92956 xmax: -65.6268 ymax: 71.35163
Geodetic CRS:  WGS 84
# A tibble: 52 × 4
   id    name                  density                                  geometry
   <chr> <chr>                   <dbl>                        <MULTIPOLYGON [°]>
 1 01    Alabama                 94.6  (((-87.3593 35.00118, -85.60667 34.98475…
 2 02    Alaska                   1.26 (((-131.602 55.11798, -131.5692 55.28229…
 3 04    Arizona                 57.0  (((-109.0425 37.00026, -109.048 31.33163…
 4 05    Arkansas                56.4  (((-94.47384 36.50186, -90.15254 36.4963…
 5 06    California             242.   (((-123.2333 42.00619, -122.3789 42.0116…
 6 08    Colorado                49.3  (((-107.9197 41.00391, -105.729 40.99843…
 7 09    Connecticut            739.   (((-73.05353 42.03905, -71.79931 42.0226…
 8 10    Delaware               464.   (((-75.41409 39.80446, -75.5072 39.68396…
 9 11    District of Columbia 10065    (((-77.03526 38.99387, -76.90929 38.8952…
10 12    Florida                353.   (((-85.49714 30.99754, -85.00421 31.0030…
# ℹ 42 more rows
…
